…
IPC data is stored on the [Humanitarian Data
Exchange](https://data.humdata.org/dataset/ipc-country-data), and this
package provides a simple interface to pull this data directly. However,
the data is also stored in a format not readily usable for analysis or
visualization. Thus, this package also automatically wrangles the data
into a format prepared for analysis. This functionality is documented
within `ipc_download()` and `ipc_wrangle()` respectively.

For the user, all that is needed is a simple one liner.

``` r
library(Ripc)

ipc_download()
#> # A tibble: 15,597 × 25
#>    country     level_…¹ area  area_id analy…² date_of_…³ count…⁴ analy…⁵ popul…⁶
#>    <chr>       <chr>    <chr>   <dbl> <chr>   <date>       <int> <chr>     <dbl>
#>  1 Afghanistan <NA>     Bada…  2.51e7 Acute … 2022-03-01       1 current 1401209
#>  2 Afghanistan <NA>     Bada…  2.51e7 Acute … 2022-03-01       1 first_… 1401209
#>  3 Afghanistan <NA>     Badg…  2.51e7 Acute … 2022-03-01       1 current  730566
#>  4 Afghanistan <NA>     Badg…  2.51e7 Acute … 2022-03-01       1 first_…  730566
#>  5 Afghanistan <NA>     Bagh…  2.51e7 Acute … 2022-03-01       1 current 1077131
#>  6 Afghanistan <NA>     Bagh…  2.51e7 Acute … 2022-03-01       1 first_… 1077131
#>  7 Afghanistan <NA>     Bagh…  2.51e7 Acute … 2022-03-01       1 current  271631
#>  8 Afghanistan <NA>     Bagh…  2.51e7 Acute … 2022-03-01       1 first_…  271631
#>  9 Afghanistan <NA>     Balkh  2.51e7 Acute … 2022-03-01       1 current 1356012
#> 10 Afghanistan <NA>     Balkh  2.51e7 Acute … 2022-03-01       1 first_… 1356012
#> # … with 15,587 more rows, 16 more variables: phase <dbl>,
#> #   analysis_period <chr>, analysis_period_start <date>,
#> #   analysis_period_end <date>, phase_1_num <dbl>, phase_1_pct <dbl>,
#> #   phase_2_num <dbl>, phase_2_pct <dbl>, phase_3_num <dbl>, phase_3_pct <dbl>,
#> #   phase_4_num <dbl>, phase_4_pct <dbl>, phase_5_num <dbl>, phase_5_pct <dbl>,
#> #   phase_3pl_num <dbl>, phase_3pl_pct <dbl>, and abbreviated variable names
#> #   ¹​level_1_name, ²​analysis_name, ³​date_of_analysis, ⁴​country_group, …
```
…
